…
6 -0.57945984 0.5477187    0    0   1 nsim1000-case1-npergroup110-test.rds    1
    n          Method
1 110             ATE
2 110            full
3 110           Lasso
4 110         reduced
5 110 reduced-Scheffe
6 110        rLasso-1
> 
> results.test %>%
+   group_by(n,case, method) %>%
+   summarize(cover = mean(cover)) %>%
+   arrange(case,n) -> results.test2
> results.test2
# A tibble: 168 x 4
# Groups:   n, case [24]
       n  case          method cover
   <dbl> <dbl>          <fctr> <dbl>
 1    20     1             ATE 0.944
 2    20     1            full 0.955
 3    20     1           Lasso 0.989
 4    20     1         reduced 0.678
 5    20     1 reduced-Scheffe 1.000
 6    20     1        rLasso-1 0.966
 7    20     1        rLasso-2 0.964
 8    50     1             ATE 0.954
 9    50     1            full 0.956
10    50     1           Lasso 0.978
# ... with 158 more rows
…
