…
+            sqrt.mse.true = sqrt(mse.true)) -> results.test1
There were 50 or more warnings (use warnings() to see the first 50)
> 
>   # Replace mean width with median width
>   results.test1$w = results.test1_medians$w
> 
>   results.test1 %>%
+     dplyr::select(case, N, Method,
+                   bias.true, sqrt.mse.true, w,
+                   prop.dx.ll,
+                   prop.dx,
+                   prop.dx.ul,
+                   prop) -> results.test2
>   results.test2
# A tibble: 56 x 10
    case     N          Method     bias.true sqrt.mse.true         w prop.dx.ll
   <dbl> <dbl>          <fctr>         <dbl>         <dbl>     <dbl>      <dbl>
 1     1    40             ATE  0.0110176126     0.3807283 1.4847672        1.6
 2     1    40            full -0.0096018021     1.6530498 6.3496391        2.0
 3     1    40           Lasso -0.0018952770     0.3464883 5.2387228        0.6
 4     1    40         reduced  0.0071844946     0.8694371 1.5576385       15.9
 5     1    40 reduced-Scheffe  0.0071844946     0.8694371 5.7974865        0.0
 6     1    40        rLasso-1  0.0005704377     0.8594356 3.3700812        1.4
 7     1    40        rLasso-2 -0.0137192204     0.7786481 2.4893827        1.6
 8     1   100             ATE -0.0025251303     0.2080284 0.8367654        2.1
 9     1   100            full  0.0186785044     0.7593246 2.9018249        2.2
10     1   100           Lasso  0.0063844648     0.2240390 3.0040670        0.9
# ... with 46 more rows, and 3 more variables: prop.dx <dbl>, prop.dx.ul <dbl>,
#   prop <dbl>
…
+                   bias.true, sqrt.mse.true, w,
+                   prop.dx.ll,
+                   prop.dx,
+                   prop.dx.ul,
+                   prop) -> Table3
Joining, by = "Case"
> 
>   colnames(Table3) <- c("Case", "N","Method",
+                         "Bias", "$\\sqrt{MSE}$", "Width",
+                         "\\% in $\\hat{B}_{l}$",
+                         "\\% in $\\hat{B}$",
+                         "\\% in $\\hat{B}_{u}$",
+                         "\\% in B")
>   Table3
# A tibble: 56 x 10
     Case     N          Method          Bias `$\\sqrt{MSE}$`     Width
   <fctr> <dbl>          <fctr>         <dbl>           <dbl>     <dbl>
 1   Null    40             ATE  0.0110176126       0.3807283 1.4847672
 2     NA    40            full -0.0096018021       1.6530498 6.3496391
 3     NA    40           Lasso -0.0018952770       0.3464883 5.2387228
 4     NA    40         reduced  0.0071844946       0.8694371 1.5576385
 5     NA    40 reduced-Scheffe  0.0071844946       0.8694371 5.7974865
 6     NA    40        rLasso-1  0.0005704377       0.8594356 3.3700812
 7     NA    40        rLasso-2 -0.0137192204       0.7786481 2.4893827
 8     NA   100             ATE -0.0025251303       0.2080284 0.8367654
 9     NA   100            full  0.0186785044       0.7593246 2.9018249
10     NA   100           Lasso  0.0063844648       0.2240390 3.0040670
# ... with 46 more rows, and 4 more variables: `\\% in $\\hat{B}_{l}$` <dbl>,
#   `\\% in $\\hat{B}$` <dbl>, `\\% in $\\hat{B}_{u}$` <dbl>, `\\% in B` <dbl>
…
